{
    "title":"MailChimp Campaign Writer",
    "type":"object",
    "required":[
        "username",
        "#api_key",
        "from_name",
        "from_email",
        "template_id",
        "template_update"
    ],
    "properties":{
        "username":{
            "type":"string",
            "title":"User Name",
            "propertyOrder":1
        },
        "#api_key":{
            "type":"string",
            "title":"API Key",
            "propertyOrder":2
        },
        "from_name":{
            "type":"string",
            "title":"From Name",
            "propertyOrder":3
        },
        "from_email":{
            "type":"string",
            "title":"From Email",
            "propertyOrder":4
        },
        "template_id":{
            "type":"string",
            "title":"Template ID",
            "propertyOrder":5
        },
        "template_update":{
            "type":"string",
            "title":"Template Update",
            "default":"NO",
            "enum":[
                "YES",
                "NO"
            ],
            "propertyOrder":6
        }
    }
}